Peanut Tutorial - Heart Disease Example
…
cleveland

# A tibble: 303 × 14
   Age      Sex   CP    trestbps chol  fbs   restecg thalach exang oldpeak slope
   <fct>    <fct> <fct> <fct>    <fct> <fct> <fct>   <fct>   <fct> <fct>   <fct>
 1 above60  Male  Typi… high     Mode… high  LeftVe… Modera… No    High    up   
 2 above60  Male  Asym… high     High  norm… LeftVe… Low     Yes   Low     flat 
 3 above60  Male  Asym… low      Mode… norm… LeftVe… Low     Yes   High    flat 
 4 below50  Male  NonA… moderate Mode… norm… Normal  High    No    High    up   
 5 below50  Fema… Atyp… moderate Mode… norm… LeftVe… High    No    Low     down 
 6 between… Male  Atyp… low      Mode… norm… Normal  High    No    Zero    down 
 7 above60  Fema… Asym… moderate High  norm… LeftVe… Modera… No    High    up   
 8 between… Fema… Asym… low      Very… norm… Normal  High    Yes   Zero    down 
 9 above60  Male  Asym… moderate High  norm… LeftVe… Modera… No    Low     flat 
10 between… Male  Asym… moderate Mode… high  LeftVe… Modera… Yes   High    up   
# … with 293 more rows, and 3 more variables: ca <fct>, thal <fct>,
#   health <fct>
…
